%YAML 1.1
%TAG !u! tag:unity3d.com,2011:
--- !u!114 &11400000
MonoBehaviour:
  m_ObjectHideFlags: 0
  m_CorrespondingSourceObject: {fileID: 0}
  m_PrefabInstance: {fileID: 0}
  m_PrefabAsset: {fileID: 0}
  m_GameObject: {fileID: 0}
  m_Enabled: 1
  m_EditorHideFlags: 0
  m_Script: {fileID: 11500000, guid: 94ae19b590708394dad12135773029c8, type: 3}
  m_Name: Weapon3
  m_EditorClassIdentifier: 
  name: Series Weapon
  weaponSprite: {fileID: 21300000, guid: 27ec8d6059a68f3418bce2ecdf28240e, type: 3}
  weaponSize: 0.2
  weaponLengthMultiplier: -1.1
  rangeOfPerfectHit: 0.2
  damage: 5
  speed: 5
  lifeTime: 5
  cycles: 4
  cycleInterval: 0.3
  price: 15
  amount: 3
