%YAML 1.1
%TAG !u! tag:unity3d.com,2011:
--- !u!114 &11400000
MonoBehaviour:
  m_ObjectHideFlags: 0
  m_CorrespondingSourceObject: {fileID: 0}
  m_PrefabInstance: {fileID: 0}
  m_PrefabAsset: {fileID: 0}
  m_GameObject: {fileID: 0}
  m_Enabled: 1
  m_EditorHideFlags: 0
  m_Script: {fileID: 11500000, guid: 86ff857e53216f840a696ae0871bcaa1, type: 3}
  m_Name: DefaultTrack
  m_EditorClassIdentifier: 
  name: DefaultTrack
  trackSprite: {fileID: 21300000, guid: 6d1bd3fe210ab4a4fb91aa88d8c09f33, type: 3}
  offset: {x: 0, y: 0}
  renderLayer: 4
  speedModifier: 1
  price: 1
